…
Plot the missing values in each variable(column) of the dataset

::: cell
::: cell-output-display
![Percentage of missing values in each
column](QMD_2022_32_files/figure-markdown/missing-value%20in%20each%20column-1.png)
:::
:::

Delete Columns with majority of missing data and select initial columns
for initial analysis

::: cell
::: {.cell-output .cell-output-stdout}
    # A tibble: 73 × 5
       name                  country height opened     status   
       <chr>                 <fct>    <dbl> <date>     <chr>    
     1 360 Pensacola Beach   USA       200  2012-07-03 Moved    
     2 Amuran                Japan     303  2004-01-01 Operating
     3 Asiatique Sky         Tailand   200  2012-12-15 Operating
     4 Aurora Wheel          Japan     295  NA         Operating
     5 Baghdad Eye           Iraq      180  2011-01-01 Operating
     6 Beijing Great Wheel   China     693. NA         Delayed  
     7 Belfast Wheel         Ireland   200. 2007-01-01 Defunct  
     8 Big O                 Japan     197  2006-01-01 Operating
     9 Brighton Wheel        UK        160  2011-10-24 Operating
    10 Changsha Ferris Wheel China     394  2004-10-01 Operating
    # … with 63 more rows
    # ℹ Use `print(n = ...)` to see more rows
…
